[
{"Kanji":"党","lectura":"トウ なかま むら","Significado":"partido, facción, clique"},
{"Kanji":"協","lectura":"キョウ","Significado":"co, la cooperación"},
{"Kanji":"総","lectura":"ソウ フ す.べて すべ.て","Significado":"en general, toda, toda, completa y total"},
{"Kanji":"区","lectura":"ク オウ コウ","Significado":"Ward, distrito"},
{"Kanji":"領","lectura":"リョウ","Significado":"jurisdicción, dominio, territorio, feudo, reino"},
{"Kanji":"県","lectura":"ケン カ.ケ","Significado":"prefectura"},
{"Kanji":"設","lectura":"セツ モウ.ケ","Significado":"establecimiento, disposición, preparar"},
{"Kanji":"改","lectura":"カイ あらた.める あらた.まる","Significado":"Reforma, cambiar, modificar, vías de recuperación, renovación, examinar, inspeccionar, búsqueda"},
{"Kanji":"府","lectura":"ふ","Significado":"municipio, prefectura urbana, oficina de Gobierno, órgano representativo, almacén"},
{"Kanji":"査","lectura":"サ","Significado":"investigar"},
{"Kanji":"委","lectura":"イ ユダ.ネ","Significado":"comité, encarga a, licencia para, dedicar, descarte"},
{"Kanji":"軍","lectura":"グン","Significado":"ejército, fuerza, tropas, guerra, batalla"},
{"Kanji":"団","lectura":"ダン トン かたまり まる.い","Significado":"grupo, asociación"},
{"Kanji":"各","lectura":"カク オノオ","Significado":"cada uno, cada, ya sea"},
{"Kanji":"島","lectura":"トウ しま","Significado":"isla"},
{"Kanji":"革","lectura":"カク かわ","Significado":"cuero, llegar a ser grave, piel, cuero, piel"},
{"Kanji":"村","lectura":"ソン ム","Significado":"aldea Pueblo"},
{"Kanji":"勢","lectura":"セイ ゼイ ハズ いきお.い","Significado":"fuerzas, energía, fuerza militar"},
{"Kanji":"減","lectura":"ゲン へ.る へ.らす","Significado":"disminuir, reducir, reducir, declive, curtail, tener hambre"},
{"Kanji":"再","lectura":"サイ サ フタタ.","Significado":"de nuevo, dos veces, la segunda vez"},
{"Kanji":"税","lectura":"ゼ","Significado":"impuesto, derecho"},
{"Kanji":"営","lectura":"エイ いとな.む いとな.み","Significado":"la ocupación, el campamento, lleve a cabo, la acumulación, la conducta (empresa)"},
{"Kanji":"比","lectura":"ヒ クラ.ベ","Significado":"comparar, raza, relación, Filipinas"},
{"Kanji":"防","lectura":"ボウ フセ.","Significado":"alejar, defender, proteger, resistir"},
{"Kanji":"補","lectura":"ホ おぎな.う","Significado":"suplemento, abastecimiento, bueno, offset, compensar, ayudante, aprendiz"},
{"Kanji":"境","lectura":"キョウ ケイ サカ","Significado":"frontera, frontera, región"},
{"Kanji":"導","lectura":"ドウ ミチビ.","Significado":"orientación, lo que lleva, conducta, Usher"},
{"Kanji":"副","lectura":"フ","Significado":"vice, duplicar, copiar"},
{"Kanji":"算","lectura":"サン そろ","Significado":"calcular, adivinando, número, ábaco, probabilidad"},
{"Kanji":"輸","lectura":"ユ シュ","Significado":"transporte, envío, ser inferiores"},
{"Kanji":"述","lectura":"ジュツ の.べる","Significado":"mención, estado, hablar, relacionarse"},
{"Kanji":"線","lectura":"セン すじ","Significado":"línea, pista"},
{"Kanji":"農","lectura":"ノ","Significado":"la agricultura, los agricultores"},
{"Kanji":"州","lectura":"シュウ ス","Significado":"Provincia del estado"},
{"Kanji":"武","lectura":"ブ ム タケ.","Significado":"guerrero, militar, caballería, los brazos"},
{"Kanji":"象","lectura":"ショウ ゾウ カタド.","Significado":"elefante, patrón después, imitar, imagen, forma, señal (de las veces)"},
{"Kanji":"域","lectura":"イキ","Significado":"gama, región, límites, etapa, nivel"},
{"Kanji":"額","lectura":"ガク ヒタ","Significado":"frente, tableta, placa, imagen enmarcada, suma, cantidad, volumen"},
{"Kanji":"欧","lectura":"オウ ハ. うた.う","Significado":"Europa"},
{"Kanji":"担","lectura":"タン かつ.ぐ にな.う","Significado":"que lleva a hombros, transporte, elevación, oso"},
{"Kanji":"準","lectura":"ジュン じゅん.じる じゅん.ずる なぞら.える のり ひと.しい みずもり","Significado":"semi-, corresponden a, proporcionadas a, conforme, imitar"},
{"Kanji":"賞","lectura":"ショウ ほ.める","Significado":"premio, recompensa, alabanza"},
{"Kanji":"辺","lectura":"ヘン - あた.り ほと.り","Significado":"alrededores, límite, frontera, en un radio de"},
{"Kanji":"造","lectura":"ゾウ -ヅク. つく.る つく.り","Significado":"cree, haga, estructura, el físico"},
{"Kanji":"被","lectura":"ヒ カブ.セ こうむ.る おお.う かぶ.る","Significado":"incurrir, cubierta, velo, cría más, refugio, ropa, poner, estar expuestos (película), receptora"},
{"Kanji":"技","lectura":"ギ わざ","Significado":"habilidad, arte, artesanía, habilidad, hazaña, el rendimiento, la vocación, las artes"},
{"Kanji":"低","lectura":"テイ ひく.い ひく.める ひく.まる","Significado":"inferior, corta, humilde"},
{"Kanji":"復","lectura":"フク また","Significado":"restaurar, volver a, Revert, hoja de vida"},
{"Kanji":"移","lectura":"イ うつ.る うつ.す","Significado":"turno, mover, cambiar, la deriva, la captura (frío, fuego), pasar a"},
{"Kanji":"個","lectura":"コ カ","Significado":"individuo, contador de artículos y unidades militares"},
{"Kanji":"門","lectura":"モン かど","Significado":"puertas"},
{"Kanji":"課","lectura":"カ","Significado":"capítulo, lección, sección, departamento, división, contador de capítulos (de un libro)"},
{"Kanji":"脳","lectura":"ノウ ドウ のうずる","Significado":"cerebro, la memoria"},
{"Kanji":"極","lectura":"キョク ゴク きわ.める きわ.まる きわ.まり きわ.み き.める -ぎ.め き.まる","Significado":"postes, liquidación, conclusión, final, el rango más alto, postes eléctricos, muy, muy, muy, muy, 10 ** 48"},
{"Kanji":"含","lectura":"ガン ふく.む ふく.める","Significado":"incluir, tener en cuenta, comprender, valoramos"},
{"Kanji":"蔵","lectura":"ゾウ ソウ カク.レ くら おさ.める","Significado":"almacén, piel, propia, tienen, poseen"},
{"Kanji":"量","lectura":"リョウ ハカ.","Significado":"cantidad, medida, peso, cantidad, considerar, estimar, conjetura"},
{"Kanji":"型","lectura":"ケイ かた -がた","Significado":"molde, tipo, modelo"},
{"Kanji":"況","lectura":"キョウ まし.て いわ.んや おもむき","Significado":"condición, situación"},
{"Kanji":"針","lectura":"シン ハ","Significado":"aguja, alfiler, grapa, aguijón"},
{"Kanji":"専","lectura":"セン もっぱ.ら","Significado":"especialidad, exclusiva, sobre todo, el único"},
{"Kanji":"谷","lectura":"コク キワ.マ たに","Significado":"Valle"},
{"Kanji":"史","lectura":"し","Significado":"la historia, crónica"},
{"Kanji":"階","lectura":"カイ キザハ","Significado":"pisos, escaleras, contador para plantas de un edificio"},
{"Kanji":"管","lectura":"カン ク","Significado":"para tubos, instrumento de viento, charla borracho"},
{"Kanji":"兵","lectura":"ヘイ ヒョウ ツワモ","Significado":"soldado, privados, tropas, ejército, guerra, estrategia, tácticas"},
{"Kanji":"接","lectura":"セツ ショウ つ.ぐ","Significado":"contacto, contacto, adjoin, pieza junto"},
{"Kanji":"細","lectura":"サイ ほそ.い ほそ.る こま.か こま.かい","Significado":"delicada, adelgazar, forma cónica, delgada, reducir"},
{"Kanji":"効","lectura":"コウ き.く ききめ なら.う","Significado":"mérito, eficacia, eficiencia, beneficio"},
{"Kanji":"丸","lectura":"ガン マル. まる まる.める","Significado":"redondo, completo, el mes, la perfección, -ship, píldoras, haga redonda, rueda para arriba, enroscarse, seducir, explicar"},
{"Kanji":"湾","lectura":"ワン いりえ","Significado":"golfo, bahía, entrada"},
{"Kanji":"録","lectura":"ロク","Significado":"grabar"},
{"Kanji":"省","lectura":"セイ ショウ ハブ. かえり.みる","Significado":"enfoque, Ministerio de Gobierno, conservar"},
{"Kanji":"旧","lectura":"キュウ ふる.い もと","Significado":"los viejos tiempos, las cosas viejas, viejo amigo, ex, ex"},
{"Kanji":"橋","lectura":"キョウ ハ","Significado":"puente"},
{"Kanji":"岸","lectura":"ガン キ","Significado":"playa"},
{"Kanji":"周","lectura":"シュウ マワ.","Significado":"circunferencia, circuito, regazo"},
{"Kanji":"材","lectura":"ザ","Significado":"madera de construcción, registro, madera, madera, talento"},
{"Kanji":"戸","lectura":"コ","Significado":"puerta"},
{"Kanji":"央","lectura":"オ","Significado":"centro, medio"},
{"Kanji":"券","lectura":"ケン","Significado":"boleto"},
{"Kanji":"編","lectura":"ヘン あ.む -あ.み","Significado":"compilación, de punto, trenza, trenza, torsión, editar, poema completo, parte de un libro"},
{"Kanji":"捜","lectura":"ソウ シュ シュウ さが.す","Significado":"buscar, buscar, localizar"},
{"Kanji":"竹","lectura":"チク タ","Significado":"bambú"},
{"Kanji":"超","lectura":"チョウ コ. こ.える","Significado":"Transcend, súper, ultra"},
{"Kanji":"並","lectura":"ヘイ ホウ ナラ.ビ な.み なら.べる なら.ぶ","Significado":"fila, y, además, así como, alinear, con rango, el rival, igual"},
{"Kanji":"療","lectura":"リョウ","Significado":"sanar, curar"},
{"Kanji":"採","lectura":"サイ と.る","Significado":"recoger, llevar, ir a buscar, tomar hasta"},
{"Kanji":"森","lectura":"シン モ","Significado":"bosque, maderas"},
{"Kanji":"競","lectura":"キョウ ケイ セ. きそ.う","Significado":"emular, competir con, oferta, venta en una subasta, combate, competencia, raza"},
{"Kanji":"介","lectura":"カ","Significado":"atascado en, mariscos, mediata, la preocupación con uno mismo"},
{"Kanji":"根","lectura":"コン ね -ね","Significado":"raíz, radical, la cabeza (espinilla)"},
{"Kanji":"販","lectura":"ハン","Significado":"comercialización, venta, canje"},
{"Kanji":"歴","lectura":"レキ レッキ","Significado":"plan de estudios, la continuación, paso del tiempo"},
{"Kanji":"将","lectura":"ショウ ソウ モッ まさ.に はた まさ ひきい.る","Significado":"líder, comandante, general, almirante, o, de nuevo, muy pronto, a partir de ahora, a punto"},
{"Kanji":"幅","lectura":"フク はば","Significado":"colgando de desplazamiento, ancho"},
{"Kanji":"般","lectura":"ハン","Significado":"portador, lleve, todos"},
{"Kanji":"貿","lectura":"ボウ","Significado":"el comercio, el intercambio"},
{"Kanji":"講","lectura":"コウ","Significado":"conferencias, club, asociación"},
{"Kanji":"林","lectura":"リン ハヤ","Significado":"arboleda, bosque"},
{"Kanji":"装","lectura":"ソウ ショウ よそお.う よそお.い","Significado":"traje, vestido, fingir, disfraz, profess"},
{"Kanji":"諸","lectura":"ショ もろ","Significado":"varios, muchos, varios, juntos"},
{"Kanji":"劇","lectura":"ゲキ","Significado":"drama, juego"},
{"Kanji":"河","lectura":"カ カ","Significado":"río"},
{"Kanji":"航","lectura":"コ","Significado":"navegar, vela, crucero, mosca"},
{"Kanji":"鉄","lectura":"テツ クロガ","Significado":"hierro"},
{"Kanji":"児","lectura":"ジ ニ ゲイ -ッ こ -こ","Significado":"bebé recién nacido, niño, joven de animales"},
{"Kanji":"禁","lectura":"キン","Significado":"prohibición, prohibición, lo quiera"},
{"Kanji":"印","lectura":"イン しるし -じるし しる.す","Significado":"sello, sello, marca, sello, símbolo, emblema, marca comercial, pruebas, recuerdo, la India"},
{"Kanji":"逆","lectura":"ギャク ゲキ さか さか.さ さか.らう","Significado":"invertida, inverso, opuesto, malvados"},
{"Kanji":"換","lectura":"カン か.える -か.える か.わる","Significado":"intercambio, periodo, la carga, el cambio?"},
{"Kanji":"久","lectura":"キュウ ク ヒサ.シ","Significado":"mucho tiempo, historia de siempre"},
{"Kanji":"短","lectura":"タン みじか.い","Significado":"corto, la brevedad, falla, defecto, el punto débil"},
{"Kanji":"油","lectura":"ユ ユウ あぶら","Significado":"el aceite, la grasa"},
{"Kanji":"暴","lectura":"ボウ バク あば.く あば.れる","Significado":"estallido, delirio, traste, la fuerza, la violencia, la crueldad, la indignación"},
{"Kanji":"輪","lectura":"リン","Significado":"rueda, anillo, círculo, enlace, lazo, contador para ruedas y flores"},
{"Kanji":"占","lectura":"セン ウラナ. し.める","Significado":"adivinación del futuro, adivinación, la previsión, ocupan, bodega, tiene, obtener, para llevar"},
{"Kanji":"植","lectura":"ショク ウ.ワ う.える","Significado":"planta"},
{"Kanji":"清","lectura":"セイ ショウ シン キヨ.メ きよ.い きよ.まる","Significado":"puro, purificar, limpiar, exorcizar, dinastía manchú"},
{"Kanji":"倍","lectura":"バ","Significado":"doble, dos veces, veces, se pliegan"},
{"Kanji":"均","lectura":"キン ナラ.","Significado":"nivel, la media"},
{"Kanji":"億","lectura":"オ","Significado":"cientos de millones, 10 ** 8"},
{"Kanji":"圧","lectura":"アツ エン オウ お.す へ.す おさ.える お.さえる","Significado":"presión, empuje, abrumar, oprimir, dominar"},
{"Kanji":"芸","lectura":"ゲイ ウン ワ う.える のり","Significado":"la técnica, el arte, la artesanía, el rendimiento, la actuación, truco, truco"},
{"Kanji":"署","lectura":"ショ","Significado":"firma, oficina de gobierno, estación de policía"},
{"Kanji":"伸","lectura":"シン ノ. の.びる の.ばす の.べる","Significado":"expandir, estirar, extender, prolongar la duración de aumento"},
{"Kanji":"停","lectura":"テイ と.める と.まる","Significado":"alto, parada"},
{"Kanji":"爆","lectura":"バク は.ぜる","Significado":"bomba, se abrió de golpe, pop, dividida"},
{"Kanji":"陸","lectura":"リク ロク オ","Significado":"tierra, seis"},
{"Kanji":"玉","lectura":"ギョク -ダ たま たま-","Significado":"joya, bola"},
{"Kanji":"波","lectura":"ハ ナ","Significado":"ondas, olas, Polonia"},
{"Kanji":"帯","lectura":"タイ オ お.びる","Significado":"faja, cinturón, Obi, zona, región"},
{"Kanji":"延","lectura":"エン ノ.バ の.びる の.べる の.べ","Significado":"Prolong, que se extiende"},
{"Kanji":"羽","lectura":"ウ ハ は わ","Significado":"plumas, contador para las aves, conejos"},
{"Kanji":"固","lectura":"コ かた.める かた.まる かた.まり かた.い","Significado":"Harden, conjunto, coágulo, curdle"},
{"Kanji":"則","lectura":"ソク ノット.","Significado":"regla, siga, basado en, después de modelo"},
{"Kanji":"乱","lectura":"ラン ロン ワタ. みだ.れる みだ.る みだ.す みだ おさ.める","Significado":"disturbios, guerra, desorden, molestar"},
{"Kanji":"普","lectura":"フ アマネ あまね.く","Significado":"universales, de ancho (ly), por lo general, Prusia"},
{"Kanji":"測","lectura":"ソク はか.る","Significado":"braza, plan, plan, medida"},
{"Kanji":"豊","lectura":"ホウ ブ ト ゆた.か","Significado":"abundante, excelente, rico"},
{"Kanji":"厚","lectura":"コウ ア あつ.い","Significado":"gruesa, pesada, rica, amable, cordial, descarada, desvergonzada"},
{"Kanji":"齢","lectura":"レイ よわ.い とし","Significado":"años"},
{"Kanji":"囲","lectura":"イ かこ.む かこ.う かこ.い","Significado":"envolvente, asedio, tienda, palidez, recinto, rodear, preservar, mantener"},
{"Kanji":"卒","lectura":"ソツ シュツ そっ.する お.える お.わる ついに にわか","Significado":"graduado, soldado, privado, Die"},
{"Kanji":"略","lectura":"リャク ほぼ おか.す おさ.める はかりごと はか.る はぶ.く りゃく.す りゃく.する","Significado":"abreviatura, omisión, contorno, acortar, la captura, el saqueo"},
{"Kanji":"承","lectura":"ショウ ウ.ケ うけたまわ.る","Significado":"acquiesce, oír, escuchar, estar informado, recibir"},
{"Kanji":"順","lectura":"ジュ","Significado":"obedecen, el orden, a su vez, a la derecha, la docilidad, ocasión"},
{"Kanji":"岩","lectura":"ガン いわ","Significado":"roca, roca, acantilado"},
{"Kanji":"練","lectura":"レン ネ. ね.る","Significado":"la práctica, brillo, tren, taladro, pulir, refinar"},
{"Kanji":"軽","lectura":"ケイ かる.い かろ.やか かろ.んじる","Significado":"la ligera, insignificante, sin importancia"},
{"Kanji":"了","lectura":"リョ","Significado":"completa, final"},
{"Kanji":"庁","lectura":"チョウ テイ やくしょ","Significado":"oficina gubernamental"},
{"Kanji":"城","lectura":"ジョウ シ","Significado":"castillo"},
{"Kanji":"患","lectura":"カン ワズラ.","Significado":"afligidos, enfermedad, sufren, estar enfermo"},
{"Kanji":"層","lectura":"ソウ","Significado":"estrato, clase social, capa, historia, piso"},
{"Kanji":"版","lectura":"ハン","Significado":"Bloque de imprenta, placa de impresión, edición, impresión, etiqueta"},
{"Kanji":"令","lectura":"レ","Significado":"órdenes, leyes antiguas, comando, decreto"},
{"Kanji":"角","lectura":"カク ツ かど","Significado":"ángulo, esquina, cuadrado, cuerno, asta"},
{"Kanji":"絡","lectura":"ラク から.む から.まる","Significado":"entrelazan, bobina alrededor, quedan atrapados en"},
{"Kanji":"損","lectura":"ソン そこ.なう そこな.う -そこ.なう そこ.ねる -そこ.ねる","Significado":"daño, pérdida, desventaja, daño, herir"},
{"Kanji":"募","lectura":"ボ つの.る","Significado":"recluta, campaña, se reúnen (contribuciones), contar, crecer violenta"},
{"Kanji":"裏","lectura":"リ うら","Significado":"de nuevo, en medio de, en, inverso, en el interior, palma, lenguado, trasera, forro, lado equivocado"},
{"Kanji":"仏","lectura":"ブツ フツ ほとけ","Significado":"Buda, los muertos, Francia"},
{"Kanji":"績","lectura":"セ","Significado":"exploits, capullos desenrollar"},
{"Kanji":"築","lectura":"チク キズ.","Significado":"fabricar, construir, construcción"},
{"Kanji":"貨","lectura":"カ","Significado":"de mercancías, bienes, propiedades"},
{"Kanji":"混","lectura":"コン ま.じる -ま.じり ま.ざる ま.ぜる こ.む","Significado":"mezcla, mezcla, confunden"},
{"Kanji":"昇","lectura":"ショウ ノボ.","Significado":"Levantate"},
{"Kanji":"池","lectura":"チ いけ","Significado":"estanque, cisterna, piscina, depósito"},
{"Kanji":"血","lectura":"ケツ ち","Significado":"sangre"},
{"Kanji":"温","lectura":"オン ヌ あたた.か あたた.かい あたた.まる あたた.める","Significado":"calentar"},
{"Kanji":"季","lectura":"き","Significado":"estaciones"},
{"Kanji":"星","lectura":"セイ ショウ ほし -ぼし","Significado":"estrella, punto, punto, marca"},
{"Kanji":"永","lectura":"エイ ナガ.","Significado":"eternidad, largo, muy largo"},
{"Kanji":"著","lectura":"チョ チャク あらわ.す いちじる.しい","Significado":", Publicar, escribir reconocido, notable, fenomenal, poner, poner, desgaste, llegada, acabado (raza), contador de traje"},
{"Kanji":"誌","lectura":"シ","Significado":"documentos, registros"},
{"Kanji":"庫","lectura":"コ ク くら","Significado":"almacén, almacén"},
{"Kanji":"刊","lectura":"カン","Significado":"publicar, talla, el grabado"},
{"Kanji":"像","lectura":"ゾ","Significado":"estatua, foto, imagen, figura, retrato"},
{"Kanji":"香","lectura":"コウ キョウ カオ. か かお.り","Significado":"incienso, olor, perfume"},
{"Kanji":"坂","lectura":"ハン サ","Significado":"pendiente, inclinación, colina"},
{"Kanji":"底","lectura":"テイ そこ","Significado":"parte inferior, el lenguado, la profundidad, el precio inferior, de base, tipo, especie"},
{"Kanji":"布","lectura":"フ ヌ","Significado":"tela de lino"},
{"Kanji":"寺","lectura":"ジ てら","Significado":"templo budista"},
{"Kanji":"宇","lectura":"う","Significado":"aleros, techo, casa, cielo"},
{"Kanji":"巨","lectura":"キ","Significado":"gigantesco, grande, grande, grande"},
{"Kanji":"震","lectura":"シン ふる.う ふる.える","Significado":"temblor, sacudida, temblor, temblor, temblor"},
{"Kanji":"希","lectura":"キ ケ マ","Significado":"esperanza, BEG, solicitud, rezar, rogamos, Grecia, diluido (ácido), rara, pocos, fenomenal"},
{"Kanji":"触","lectura":"ショク ふ.れる さわ.る さわ","Significado":"contacto, tacto, sensación, golpe, proclamar, anunciar, el conflicto"},
{"Kanji":"依","lectura":"イ エ ヨ.","Significado":"depende, depende, en consecuencia, por lo tanto, debido a"},
{"Kanji":"籍","lectura":"セキ","Significado":"inscribirse, registro domiciliario, la pertenencia"},
{"Kanji":"汚","lectura":"オ けが.す けが.れる けが.らわしい よご.す よご.れる きたな.い","Significado":"sucio, contaminan, la desgracia, la violación, el desfiladero"},
{"Kanji":"枚","lectura":"マイ バ","Significado":"hoja de ..., contador para objetos delgados planos u hojas"},
{"Kanji":"複","lectura":"フク","Significado":"duplicado, doble, compuesto, múltiple"},
{"Kanji":"郵","lectura":"ユウ","Significado":"correo, parada de la diligencia"},
{"Kanji":"仲","lectura":"チュウ ナ","Significado":"intermediario, la relación"},
{"Kanji":"栄","lectura":"エイ ヨウ さか.える は.え -ば.え は.える","Significado":"broche de oro, la prosperidad, el honor, la gloria, el esplendor"},
{"Kanji":"札","lectura":"サツ フ","Significado":"etiquetas, papel moneda, contador de bonos, cartel, oferta"},
{"Kanji":"板","lectura":"ハン バン いた","Significado":"tablón, tablero, placa, etapa"},
{"Kanji":"骨","lectura":"コツ ほね","Significado":"esqueleto, hueso, restos, marco"},
{"Kanji":"傾","lectura":"ケイ かたむ.く かたむ.ける かたぶ.く かた.げる かし.げる","Significado":"magra, la inclinación, la inclinación, tendencia, decadencia, fregadero, ruina, sesgo"},
{"Kanji":"届","lectura":"カイ とど.ける -とど.け とど.く","Significado":"entregar, alcance, llegar, informe, notificar, hacia adelante"},
{"Kanji":"巻","lectura":"カン ケン ま.く まき ま.き","Significado":"de desplazamiento, volumen, libro, parte, enrollar, enrollar, lazo, bobina, contador de textos (o rollos de libros)"},
{"Kanji":"燃","lectura":"ネン も.える も.やす も.す","Significado":"quemar, arder, brillar"},
{"Kanji":"跡","lectura":"セキ あと","Significado":"pistas, marca, impresión, impresión"},
{"Kanji":"包","lectura":"ホウ クル. つつ.む","Significado":"envolver, empacar, cubrir, ocultar"},
{"Kanji":"駐","lectura":"チュウ","Significado":"parada, reside, residente"},
{"Kanji":"弱","lectura":"ジャク よわ.い よわ.る よわ.まる よわ.める","Significado":"débil, frágil"},
{"Kanji":"紹","lectura":"ショ","Significado":"introducir, heredar, ayuda"},
{"Kanji":"雇","lectura":"コ やと.う","Significado":"empleo, alquiler"},
{"Kanji":"替","lectura":"タイ カ.ワ か.える か.え-","Significado":"cambio, repuesto, sustituto, per-"},
{"Kanji":"預","lectura":"ヨ あず.ける あず.かる","Significado":"de depósito, custodia, con licencia, encarga a"},
{"Kanji":"焼","lectura":"ショウ ヤ.ケ や.く や.き や.き- -や.き","Significado":"hornear, la quema"},
{"Kanji":"簡","lectura":"カン","Significado":"simplicidad, brevedad"},
{"Kanji":"章","lectura":"ショ","Significado":"insignia, el capítulo, la composición, poema, diseño"},
{"Kanji":"臓","lectura":"ゾウ はらわた","Significado":"entrañas, vísceras, los intestinos"},
{"Kanji":"律","lectura":"リツ リチ レ","Significado":"el ritmo, la ley, regulación, indicador, el control"},
{"Kanji":"贈","lectura":"ゾウ ソウ おく.る","Significado":"regalos, enviar, dan a, premio que, confieren a, presentar algo"},
{"Kanji":"照","lectura":"ショウ テ.レ て.る て.らす","Significado":"iluminar, brillo, comparar, tímida"},
{"Kanji":"薄","lectura":"ハク うす.い うす- -うす うす.める うす.まる うす.らぐ うす.ら- うす.れる すすき","Significado":"diluido, delgada, débil (té)"},
{"Kanji":"群","lectura":"グン ムラ.ガ む.れる む.れ むら","Significado":"rebaño, grupo, multitud, manada, enjambre, racimo"},
{"Kanji":"秒","lectura":"ビョウ","Significado":"segundo (1, 60 minutos)"},
{"Kanji":"奥","lectura":"オウ オク ク おく.まる","Significado":"corazón, interior"},
{"Kanji":"詰","lectura":"キツ キチ ツ. つ.める つ.め -づ.め つ.まる","Significado":"embalado, cerca, presionado, reprender, la culpa"},
{"Kanji":"双","lectura":"ソウ フタ ふた たぐい ならぶ","Significado":"par, conjunto, comparación, contador para pares"},
{"Kanji":"刺","lectura":"シ さ.す さ.さる さ.し さし とげ","Significado":"espina, perfore, puñalada, pinchazo, picar, tarjeta de llamada"},
{"Kanji":"純","lectura":"ジュ","Significado":"genuina, la pureza, la inocencia, neto (beneficio)"},
{"Kanji":"翌","lectura":"ヨク","Significado":"la siguiente, junto"},
{"Kanji":"快","lectura":"カイ ココロヨ.","Significado":"alegre, agradable, agradable, cómoda"},
{"Kanji":"片","lectura":"ヘン かた- かた","Significado":"de un solo lado, hoja, hoja"},
{"Kanji":"敬","lectura":"ケイ キョウ ウヤマ.","Significado":"asombro, respeto, honor, Revere"},
{"Kanji":"悩","lectura":"ノウ なや.む なや.ます なや.ましい なやみ","Significado":"problemas, la preocupación, el dolor, la angustia, la enfermedad"},
{"Kanji":"泉","lectura":"セン イズ","Significado":"manantial, fuente"},
{"Kanji":"皮","lectura":"けがわ","Significado":"piel, piel, cuero, cuero"},
{"Kanji":"漁","lectura":"ギョ リョウ あさ.る","Significado":"pesca, pesca"},
{"Kanji":"荒","lectura":"コウ スサ. あら.い あら- あ.れる あ.らす -あ.らし","Significado":"devastadas, áspero, rudo, salvaje"},
{"Kanji":"貯","lectura":"チョ た.める たくわ.える","Significado":"ahorro, tienda, sentar en, mantenga, bigote desgaste"},
{"Kanji":"硬","lectura":"コウ かた.い","Significado":"tieso, duro"},
{"Kanji":"埋","lectura":"マイ う.める う.まる う.もれる うず.める うず.まる い.ける","Significado":"enterrar, ser llenado, incrustado"},
{"Kanji":"柱","lectura":"チュウ はしら","Significado":"pilar, poste, cilindro, el apoyo"},
{"Kanji":"祭","lectura":"サイ まつ.る まつ.り まつり","Significado":"ritual, ofrecer oraciones, celebrar, deify, consagran, el culto"},
{"Kanji":"袋","lectura":"タイ ダイ フク","Significado":"saco, bolsa, bolsa"},
{"Kanji":"筆","lectura":"ヒツ フ","Significado":"Cepillo de escritura, escritura, cepillo de la pintura, la escritura"},
{"Kanji":"訓","lectura":"クン キン クン.ズ おし.える よ.む","Significado":"la instrucción, la lectura de caracteres japoneses, explicación, lectura"},
{"Kanji":"浴","lectura":"ヨク ア.ビセ あ.びる","Significado":"bañarse, ser favorecido con, toma el sol en"},
{"Kanji":"童","lectura":"ドウ ワラ","Significado":"juvenil, infantil"},
{"Kanji":"宝","lectura":"ホウ タカ","Significado":"tesoro, riqueza, objetos de valor"},
{"Kanji":"封","lectura":"フウ ホウ","Significado":"sello, de cierre"},
{"Kanji":"胸","lectura":"キョウ むね むな-","Significado":"pecho, pecho, el pecho, el corazón, los sentimientos"},
{"Kanji":"砂","lectura":"サ シャ ス","Significado":"arena"},
{"Kanji":"塩","lectura":"エン しお","Significado":"sal"},
{"Kanji":"賢","lectura":"ケン カシコ.","Significado":"inteligente, sabio, sabiduría, inteligencia"},
{"Kanji":"腕","lectura":"ワン うで","Significado":"el brazo, la capacidad, el talento"},
{"Kanji":"兆","lectura":"チョウ きざ.す きざ.し","Significado":"portento 10 ** 12, billón, muestra, presagio, síntomas"},
{"Kanji":"床","lectura":"ショウ とこ ゆか","Significado":"cama, el piso, relleno, tatami"},
{"Kanji":"毛","lectura":"モウ","Significado":"piel, pelo, plumas, abajo"},
{"Kanji":"緑","lectura":"リョク ロク みどり","Significado":"verde"},
{"Kanji":"尊","lectura":"ソン トウト. たっと.い とうと.い たっと.ぶ","Significado":"reverenciado, valioso, precioso, noble, exaltado"},
{"Kanji":"祝","lectura":"シュク シュウ イワ.","Significado":"celebre, felicite"},
{"Kanji":"柔","lectura":"ジュウ ニュウ ヤワ. やわ.らか やわ.らかい やわ","Significado":"tierna, la debilidad, la dulzura, la suavidad"},
{"Kanji":"殿","lectura":"デン テン -ド との","Significado":"El señor, hall, mansión, palacio, templo, señor"},
{"Kanji":"濃","lectura":"ノウ コ.","Significado":"concentrado, grueso, oscuro, sin diluir"},
{"Kanji":"液","lectura":"エキ","Significado":"líquido, líquido, zumo, savia, secreción"},
{"Kanji":"衣","lectura":"イ エ ころも きぬ -ぎ","Significado":"prendas de vestir, ropa, vestidor"},
{"Kanji":"肩","lectura":"ケン かた","Significado":"hombro"},
{"Kanji":"零","lectura":"レイ ぜろ こぼ.す こぼ.れる","Significado":"cero, derrame, desbordamiento, nada, cifrado"},
{"Kanji":"幼","lectura":"ヨウ オサナ.","Significado":"infancia, la niñez"},
{"Kanji":"荷","lectura":"カ","Significado":"equipaje, carga de hombro polos, oso (una carga), el hombro (un arma), carga, cargo, carga"},
{"Kanji":"泊","lectura":"ハク ト.メ と.まる","Significado":"durante la noche, se alojaron en, paseo en el ancla, estancia de 3 días"},
{"Kanji":"黄","lectura":"コウ オウ き こ","Significado":"amarillo"},
{"Kanji":"甘","lectura":"カン ウマ. あま.い あま.える あま.やかす","Significado":"dulce, coaxial, mimo, contentarse, azucarada"},
{"Kanji":"臣","lectura":"シン ジ","Significado":"retenedor, sujeto"},
{"Kanji":"浅","lectura":"セン アサ.","Significado":"poco profunda, superficial, frívolo, miserable, vergonzosa"},
{"Kanji":"掃","lectura":"ソウ シュ ハ.","Significado":"barrido, cepillo"},
{"Kanji":"雲","lectura":"ウン -グ くも","Significado":"nube"},
{"Kanji":"掘","lectura":"クツ ホ.","Significado":"excavación, ahondar, excave"},
{"Kanji":"捨","lectura":"シャ す.てる","Significado":"descarte, tirar, abandonar, renunciar, rechazar, el sacrificio"},
{"Kanji":"軟","lectura":"ナン やわ.らか やわ.らかい","Significado":"suave"},
{"Kanji":"沈","lectura":"チン ジン シズ.メ しず.む","Significado":"fregadero, ser sumergido, subside, estar deprimido, áloe"},
{"Kanji":"凍","lectura":"トウ シ.ミ こお.る こご.える こご.る い.てる","Significado":"congelado, congelan, refrigere"},
{"Kanji":"乳","lectura":"ニュウ ちち ち","Significado":"la leche, los senos"},
{"Kanji":"恋","lectura":"レン こ.う こい こい.しい","Significado":"el romance, en amor, anhelar, señorita, querida"},
{"Kanji":"紅","lectura":"コウ ク アカ. べに くれない","Significado":"carmesí, de color rojo oscuro"},
{"Kanji":"郊","lectura":"コウ","Significado":"afueras, suburbios, zona rural"},
{"Kanji":"腰","lectura":"ヨウ コ","Significado":"lomos, caderas, cintura, bajo wainscoting"},
{"Kanji":"炭","lectura":"タン すみ","Significado":"carbón vegetal, carbón"},
{"Kanji":"踊","lectura":"ヨウ おど.る","Significado":"saltar, bailar, saltar, saltar"},
{"Kanji":"冊","lectura":"サツ サク ふみ","Significado":"tomo, contador de libros, volumen"},
{"Kanji":"勇","lectura":"ユウ イサ.","Significado":"valor, anime para arriba, estar en el ánimo alto, la valentía, el heroísmo"},
{"Kanji":"械","lectura":"カイ かせ","Significado":"artilugio, grillete, máquina, instrumento"},
{"Kanji":"菜","lectura":"サイ","Significado":"vegetales, Plato de acompañamiento, greens"},
{"Kanji":"珍","lectura":"チン タカ めずら.しい","Significado":"rara, curiosa, extraña"},
{"Kanji":"卵","lectura":"ラン たまご","Significado":"huevo, huevo, freza, huevas"},
{"Kanji":"湖","lectura":"コ ミズウ","Significado":"lago"},
{"Kanji":"喫","lectura":"キツ","Significado":"consumir, comer, beber, fumar, recibir (un golpe)"},
{"Kanji":"干","lectura":"カン ヒ. ほ.す ほ.し- -ぼ.し","Significado":"seco, seque"},
{"Kanji":"虫","lectura":"チュウ キ ム","Significado":"insecto, los estribos"},
{"Kanji":"刷","lectura":"サツ す.る -ず.り -ずり は.く","Significado":"impresión, impresión"},
{"Kanji":"湯","lectura":"トウ ゆ","Significado":"agua caliente, baño, de aguas termales"},
{"Kanji":"溶","lectura":"ヨウ と.ける と.かす と.く","Significado":"fusión, disolver, deshielo"},
{"Kanji":"鉱","lectura":"コウ あらがね","Significado":"mineral, mineral"},
{"Kanji":"涙","lectura":"ルイ レイ なみだ","Significado":"las lágrimas, la simpatía"},
{"Kanji":"匹","lectura":"ヒツ ひき","Significado":"igual, cabeza, contador para animales pequeños, rollo de tela"},
{"Kanji":"孫","lectura":"ソン マ","Significado":"nieto, descendientes"},
{"Kanji":"鋭","lectura":"エイ スルド.","Significado":"en punta, la nitidez, el borde, arma, agudo, violento"},
{"Kanji":"枝","lectura":"シ エ","Significado":"rama, rama, rama, de una extremidad"},
{"Kanji":"塗","lectura":"ト ぬ.る ぬ.り まみ.れる","Significado":"pintura, yeso, barro, frotis, recubrimiento"},
{"Kanji":"軒","lectura":"ケン のき","Significado":"pisos, contador para casas, aleros"},
{"Kanji":"毒","lectura":"ドク","Significado":"veneno, virus, veneno, germen, daño, lesión, a pesar"},
{"Kanji":"叫","lectura":"キョウ さけ.ぶ","Significado":"grito, exclamar, grito"},
{"Kanji":"拝","lectura":"ハイ おが.む おろが.む","Significado":"culto, adorar, orar a"},
{"Kanji":"氷","lectura":"ヒョウ コオ. こおり ひ","Significado":"carámbano, hielo, granizo, helada, congeal"},
{"Kanji":"乾","lectura":"カン ケン かわ.く かわ.かす ほ.す ひ.る いぬい","Significado":"sequía, seco, dessicate, beber hacia arriba, el cielo, emperador"},
{"Kanji":"棒","lectura":"ボウ","Significado":"barra, palo, caña, polo, club, línea"},
{"Kanji":"祈","lectura":"キ イノ.","Significado":"rezar, deseo"},
{"Kanji":"拾","lectura":"シュウ ジュウ ひろ.う","Significado":"recoger, recopilar, buscar, ir a pie, diez"},
{"Kanji":"粉","lectura":"フン デシメートル こ こな","Significado":"harina, el polvo, el polvo"},
{"Kanji":"糸","lectura":"シ いと","Significado":"hilo"},
{"Kanji":"綿","lectura":"メン ワ","Significado":"algodón"},
{"Kanji":"汗","lectura":"カン あせ","Significado":"sudor, transpirar"},
{"Kanji":"銅","lectura":"ドウ あかがね","Significado":"cobre"},
{"Kanji":"湿","lectura":"シツ シュウ しめ.る しめ.す うるお.う うるお.す","Significado":"húmedo, mojado, húmedo"},
{"Kanji":"瓶","lectura":"ビン カ","Significado":"maceta, botella, frasco, tarro, jarra, cuba, urna"},
{"Kanji":"咲","lectura":"ショウ -ザ さ.く","Significado":"flor, floración"},
{"Kanji":"召","lectura":"ショウ め.す","Significado":"seducir, llamar, enviar a, desgaste, puso, en paseo, comprar, comer, beber, la captura (en frío)"},
{"Kanji":"缶","lectura":"カン カ","Significado":"lata, envase"},
{"Kanji":"隻","lectura":"セキ","Significado":"vasos, contador para barcos, peces, aves, flechas, uno de un par"},
{"Kanji":"脂","lectura":"シ あぶら","Significado":"grasa, grasa, sebo, manteca de cerdo, colofonia, goma, alquitrán"},
{"Kanji":"蒸","lectura":"ジョウ セイ む.す む.れる む.らす","Significado":"vapor, calor sofocante, fomentar, get a moho"},
{"Kanji":"肌","lectura":"キ はだ","Significado":"textura, piel, el cuerpo, el grano"},
{"Kanji":"耕","lectura":"コウ タガヤ.","Significado":"hasta que, arado, cultivar"},
{"Kanji":"鈍","lectura":"ドン にぶ.い にぶ.る にぶ- なま.る なまく.ら","Significado":"aburrido, lento, tonta, romo"},
{"Kanji":"泥","lectura":"デイ ナイ デ ニ ド","Significado":"barro, cieno, se adhieren a, estar unido a"},
{"Kanji":"隅","lectura":"グウ すみ","Significado":"esquina, rincón"},
{"Kanji":"灯","lectura":"トウ ひ ほ- ともしび とも.す あかり","Significado":"lámpara, una luz, la luz, contador para luces"},
{"Kanji":"辛","lectura":"シン から.い つら.い -づら.い かのと","Significado":"picante, amargo, picante y acre"},
{"Kanji":"磨","lectura":"マ ス. みが.く","Significado":"grind, pulimento, socavación, mejorar, cepillo (dientes)"},
{"Kanji":"麦","lectura":"バク むぎ","Significado":"la cebada, el trigo"},
{"Kanji":"姓","lectura":"セイ ショウ","Significado":"apellido"},
{"Kanji":"筒","lectura":"トウ つつ","Significado":"cilindro, tubo, tubo, cañón de la pistola, manga"},
{"Kanji":"鼻","lectura":"ビ はな","Significado":"la nariz, hocico"},
{"Kanji":"粒","lectura":"リュウ つぶ","Significado":"granos, gota, contador de partículas diminutas"},
{"Kanji":"詞","lectura":"シ","Significado":"parte de la oración, es decir, la poesía"},
{"Kanji":"胃","lectura":"イ","Significado":"estómago, panza, cultivos, buche"},
{"Kanji":"灰","lectura":"カイ はい","Significado":"cenizas, jugo astringente, cremate"},
{"Kanji":"菓","lectura":"カ","Significado":"dulces, pasteles, fruta"},
{"Kanji":"帽","lectura":"ボウ モウ ずきん おお.う","Significado":"cap, tocados"},
{"Kanji":"枯","lectura":"コ か.れる か.らす","Significado":"marchitan, matriz, secarse, ser sazonado"},
{"Kanji":"涼","lectura":"リョウ マコト すず.しい すず.む すず.やか うす.い ひや.す","Significado":"refrescante, agradable y fresco"},
{"Kanji":"舟","lectura":"シュウ ふね ふな- -ぶね","Significado":"barco, nave"},
{"Kanji":"貝","lectura":"バイ かい","Significado":"mariscos"},
{"Kanji":"符","lectura":"フ","Significado":"símbolo, muestra, marca, cuenta, encanto"},
{"Kanji":"憎","lectura":"ゾウ にく.む にく.い にく.らしい にく.しみ","Significado":"odio, detesto"},
{"Kanji":"皿","lectura":"ベイ さら","Significado":"plato, una ayuda, la placa"},
{"Kanji":"肯","lectura":"コウ がえんじ.る","Significado":"acuerdo, consentimiento, cumplir"},
{"Kanji":"燥","lectura":"ソウ はしゃ.ぐ","Significado":"pergamino, se secan"},
{"Kanji":"畜","lectura":"チク","Significado":"ganado, aves de corral y animales"},
{"Kanji":"挟","lectura":"キョウ ショウ はさ.む はさ.まる わきばさ.む さしはさ.む","Significado":"pellizcar, entre"},
{"Kanji":"曇","lectura":"ドン クモ.","Significado":"el tiempo nublado, empañará"},
{"Kanji":"滴","lectura":"テキ しずく したた.る","Significado":"Gota, goteo"},
{"Kanji":"伺","lectura":"シ うかが.う","Significado":"aspectos salariales, visita, preguntar, cuestionar, preguntar implore"}
]